<?xml version="1.0" encoding="utf-8"?>
<!-- Generator: Adobe Illustrator 19.2.1, SVG Export Plug-In . SVG Version: 6.00 Build 0)  -->
<svg version="1.1" id="Layer_1" xmlns="http://www.w3.org/2000/svg" xmlns:xlink="http://www.w3.org/1999/xlink" x="0px" y="0px"
	 viewBox="0 0 240 120" style="enable-background:new 0 0 240 120;" xml:space="preserve">
<style type="text/css">
	.st0{fill:#0A9E01;}
</style>
<g>
	<polygon class="st0" points="120,0 120,40 80,40 80,120 40,120 40,40 0,40 0,0 	"/>
	<rect x="160" class="st0" width="80" height="40"/>
	<polygon class="st0" points="240,80 240,120 120,120 120,40 160,40 160,80 	"/>
</g>
</svg>
